Intersection,Count
Green,9
Illinois,7
California,2
Oregon (West Leg),6
Oregon (East Leg),1
Nevada (West Leg),4
Nevada (East Leg),3
Iowa,1
Ohio,4
McKinley,
Indiana,1
Michigan,
Pennsylvania,6
Vermont,1
Delaware,2
Florida,10