Top Issues by topic,Likes,Dislikes,Changes
Multimodal Facilities,43%,46%,70%
Roadway Function/Design,36%,63%,48%
Visibility,6%,38%,15%
Signals/Signs,17%,19%,33%
Connectivity,13%,17%,15%
Safety,1%,32%,20%
Pavement Maintenance,5%,19%,13%
