﻿Roadway,Segment Between,2016 ADT,2021 ADT,Total Change in ADT between 2011 and 2016,Annual Change in ADT
Lincoln Avenue,South of Green Street,"16,100","13,100",-19%,-3.73%
Lincoln Avenue,North of Pennsylvania Avenue,"15,000","11,300",-25%,-4.93%
Lincoln Avenue,North of Florida Avenue,"13,400","10,700",-20%,-4.03%