﻿Segments,Angle,Fixed Object,Front to Rear,Parked Motor Vehicle,Pedalcyclist,Pedestrian,Rear to Side,Sideswipe Same Direction,Turning,Other,Total Crashes
W Green St - W Illinois St,0,0,5,0,0,0,0,0,2,0,7
W Illinois St - W California Ave,0,0,2,0,0,0,0,2,0,0,4
W California Ave - W Oregon St,0,0,4,0,0,0,0,0,0,1,5
W Oregon St - W Oregon St,0,1,3,0,0,0,0,2,0,0,6
W Oregon St - W Nevada St,0,1,5,0,0,0,0,0,0,0,6
W Nevada St - W Nevada St,1,1,3,1,0,0,0,2,0,0,8
W Nevada St - W Iowa St,1,1,10,3,0,0,0,2,1,1,19
W Iowa St - Ohio St,1,0,26,0,0,2,0,0,0,0,29
Ohio St - Indiana Ave,0,1,21,3,2,3,1,0,1,0,32
Indiana Ave - W Michigan Ave,0,0,4,0,1,0,0,0,1,0,6
W Michigan Ave - W Pennsylvania Ave,0,0,9,0,0,0,0,1,0,0,10
W Pennsylvania Ave - W Vermont Ave,0,1,3,0,0,0,0,1,0,0,5
W Delaware Ave - W Florida Ave,0,0,7,1,1,0,0,1,0,0,10
Total Crashes,3,6,102,8,4,5,1,11,5,2,147